v,v,v,s,s,s,s,s,s,v,v,v
v,v,v,s,s,s,s,s,s,v,v,v
v,v,s,s,s,s,s,s,s,s,v,v
v,s,s,s,s,s,s,s,s,s,s,v
v,s,s,s,s,s,s,s,s,s,s,v
v,v,v,v,v,v,v,v,v,v,v,v
v,s,s,s,s,s,s,s,s,s,s,v
v,s,s,s,s,s,s,s,s,s,s,v
v,s,s,s,s,s,s,s,s,s,s,v
v,s,s,s,s,s,s,s,s,s,s,v
v,s,s,s,s,s,s,s,s,s,s,v